<?xml version="1.0" encoding="utf-8"?>
<!-- Generator: Adobe Illustrator 18.0.0, SVG Export Plug-In . SVG Version: 6.00 Build 0)  -->
<!DOCTYPE svg PUBLIC "-//W3C//DTD SVG 1.1//EN" "http://www.w3.org/Graphics/SVG/1.1/DTD/svg11.dtd">
<svg version="1.1" xmlns="http://www.w3.org/2000/svg" xmlns:xlink="http://www.w3.org/1999/xlink" x="0px" y="0px"
	 viewBox="0 0 484.1 320.7" enable-background="new 0 0 484.1 320.7" xml:space="preserve">
<g id="Layer_2">
</g>
<g id="Layer_1" display="none">
</g>
<g id="Layer_3">
	<g>
		<g>
			<path fill="#CCCCCC" d="M0,34.5L0,241c0,19.1,15.4,34.5,34.5,34.5h408.4c19.1,0,34.5-15.4,34.5-34.5V34.5
				c0-19.1-15.4-34.5-34.5-34.5L34.5,0C15.4,0,0,15.4,0,34.5z"/>
			<path fill="#CCCCCC" d="M307.7,275.5l-1.2,1.2c-9.4,9.9-12.4,21.2-8.7,32.2l3.1,9l-18.5-13c-11.5-8.1-20.6-20.7-23-29.4v0H307.7z
				"/>
		</g>
		<g>
			<path fill="#FFFFFF" d="M6.7,38.3v206.5c0,19.1,15.4,34.5,34.5,34.5h408.4c19.1,0,34.5-15.4,34.5-34.5V38.3
				c0-19.1-15.4-34.5-34.5-34.5H41.2C22.2,3.8,6.7,19.2,6.7,38.3z"/>
			<path fill="#FFFFFF" d="M314.9,278.3l-1.2,1.2c-9.4,9.9-12.4,21.2-8.7,32.2l3.1,9l-18.5-13c-12.1-8.5-20-18.7-23-29.4v0H314.9z"
				/>
		</g>
	</g>
</g>
<g id="Layer_6">
</g>
<g id="Layer_5">
</g>
<g id="Layer_9" display="none">
</g>
<g id="Layer_10">
</g>
</svg>
